{
    "name": "Simetrical",
    "author": "",
    "email": "",
    "version": "1.0",
    "description": "",
    "banner": [
        "Este archivo es parte del proyecto <%= config.name %> v<%= config.version %>",
        "<%= config.description %>",
        "",
        "Este software es propiedad de Simetrical, S.A. de C.V.,",
        "no es un software libre y no puede ser redistribuído y/o",
        "modificado bajo ningún término que no sea expresamente",
        "autorizado por el propietario.",
        "",
        "@copyright Copyright (c); <%= config.date %> Simetrical, S.A. de C.V.",
        "@link http://www.simetrical.com",
        "@author <%= config.author %> <<%= config.email %>>",
        "@last_modified <%= config.datetime %>",
        "",
        "@filesource"
    ],
    "yml": "../app/config/config.yml",
    "formatter_yml": {
        "twig": {
            "globals": {
                "sim_template": {
                    "app": {
                        "title": "<%= config.name %>",
                        "version": "v<%= config.version %>"
                    }
                }
            }
        }
    },
    "dev": [
        "../source/**/*",
        "!../source/scss/**/*"
    ],
    "scss": "../source/scss/**/*.scss",
    "minify_js": "../source/js/**/*.js",
    "minify_css": "../source/css/**/*.css",
    "dest": {
        "dev": "../web/public/dev/",
        "scss": "../source/css",
        "minify_js": "../web/public/js/",
        "minify_css": "../web/public/css/"
    },
    "cssnano": {
        "safe": true
    },
    "uglify": {},
    "sass": {
        "precision": 8
    },
    "extends": ""
}